Size (n), Running Time
4,59932613
2004,26424929
4004,25478105
6004,32435947
8004,16828257
10004,30756946
12004,41780974
14004,56685354
16004,45848946
18004,61540856
20004,68582866
22004,69509554
24004,91751703
26004,89183219
28004,84693793
30004,82134393
32004,95803944
34004,64456755
36004,79255380
38004,97354968
40004,82457622
42004,64822588
44004,82336762
46004,77808984
48004,104112350
50004,103232000
52004,119911280
54004,92734440
56004,108775710
58004,161889411
60004,121120817
62004,106408087
64004,129701041
66004,134676987
68004,129433279
70004,143023667
72004,140980902
74004,144079725
76004,133930045
78004,172217015
80004,186983103
82004,181628357
84004,188397774
86004,180254848
88004,167693729
90004,183326711
92004,231099664
94004,202897937
96004,204342589
98004,188662306
100004,214051919
102004,199174748
104004,240319410
106004,220570702
108004,286784239
110004,221503911
112004,274235624
114004,240547145
116004,248221592
118004,244416423
120004,315256729
122004,292362363
124004,315127307
126004,267446192
128004,281321583
130004,284927238
132004,297907515
134004,284656432
136004,297016697
138004,315520668
140004,367700428
142004,346310580
144004,292324030
146004,300298686
148004,342047621
150004,315874874
152004,325785162
154004,332950412
156004,335718552
158004,342353142
160004,363487195
162004,402540483
164004,373435800
166004,511144677
168004,416455211
170004,400076536
172004,425153515
174004,445080834
176004,425402870
178004,435235970
180004,567796674
182004,488516430
184004,574091268
186004,455515408
188004,575392645
190004,474282937
192004,521177380
194004,469575449
196004,438965200
198004,477330800
200004,477585715
202004,533878801
204004,539091680
206004,534614477
208004,530277093
210004,556486098
212004,560527331
214004,579892058
216004,553389110
218004,548502579
220004,561340992
222004,545162768
224004,601862832
226004,530176670
228004,571352843
230004,540407779
232004,541436679
234004,747442112
236004,563170882
238004,557642380
240004,566627796
242004,569597219
244004,582334640
246004,783003371
248004,711309393
250004,593061715
252004,596392839
254004,761148765
256004,847480267
258004,616266761
260004,645413815
262004,840343890
264004,804357240
266004,762320302
268004,809527310
270004,655153948
272004,994731160
274004,669678781
276004,676565302
278004,815211183
280004,695699000
282004,709184274
284004,787407275
286004,773284543
288004,721315138
290004,883194208
292004,829685029
294004,807011529
296004,843937957
298004,773120684
300004,766282015
302004,888176322
304004,777233866
306004,840003786
308004,794703710
310004,882654453
312004,800477448
314004,830897924
316004,908263895
318004,984385984
320004,947006580
322004,951301057
324004,844404957
326004,1006191725
328004,843411362
330004,919596543
332004,868195406
334004,1023051875
336004,869605786
338004,1002742483
340004,889076590
342004,1000549984
344004,915020989
346004,1098693857
348004,900388900
350004,981497447
352004,939240508
354004,1057057908
356004,913638027
358004,933460661
360004,955203880
362004,966205210
364004,965683580
366004,1003299315
368004,995646869
370004,994679504
372004,1106538378
374004,1101360555
376004,1073974696
378004,1269347115
380004,1159658043
382004,1121490289
384004,1237351207
386004,1002572088
388004,1050315420
390004,1055537460
392004,1024488683
394004,1091595700
396004,1214744858
398004,1179363056
400004,1120091069
402004,1210045503
404004,1194089697
406004,1102240703
408004,1209449264
410004,1111134082
412004,1146480774
414004,1097066440
416004,1235599805
418004,1159329105
420004,1212476036
422004,1100310751
424004,1300237684
426004,1273832886
428004,1190161063
430004,1247359617
432004,1222056046
434004,1282308715
436004,1445876073
438004,1153081578
440004,1333869679
442004,1151034507
444004,1339740238
446004,1162235672
448004,1259654996
450004,1295084353
452004,1271002541
454004,1363835305
456004,1250885637
458004,1302151738
460004,1256570547
462004,1216896397
464004,1324713198
466004,1421913043
468004,1289314820
470004,1343707765
472004,1482444084
474004,1454734073
476004,1289277655
478004,1470180248
480004,1454597301
482004,1566531891
484004,1300209721
486004,1420574721
488004,1395041002
490004,1587086252
492004,1374004888
494004,1313471479
496004,1455054888
498004,1523192238
500004,1359497917
502004,1380816195
504004,1531809418
506004,1583984742
508004,1613240880
510004,1619636573
512004,1372817784
514004,1547081154
516004,1452575320
518004,1405480340
520004,1516706243
522004,1583019986
524004,1613817196
526004,1442616124
528004,1467107199
530004,1677126847
532004,1514887528
534004,1781865201
536004,1582614215
538004,1546446976
540004,1657080437
542004,1633861691
544004,1660923973
546004,1864451541
548004,1692908415
550004,1590351063
552004,1905107690
554004,1682599092
556004,1778706548
558004,1979575171
560004,1755236268
562004,1589995133
564004,1919793570
566004,1762679969
568004,1673123389
570004,1617377510
572004,1757739055
574004,1661900271
576004,1978168760
578004,1715770624
580004,1872238228
582004,1793517689
584004,1815925388
586004,2016205741
588004,1938485271
590004,1942831446
592004,1933392154
594004,1896194545
596004,1719841607
598004,2077219547
600004,1845421002
602004,2011210623
604004,1772121209
606004,1955379838
608004,2064943925
610004,1930798350
612004,2074925346
614004,1880969985
616004,1823686002
618004,1946378601
620004,2140741454
622004,1985070069
624004,2002364189
626004,1965043765
628004,2036357533
630004,1935936790
632004,2036161937
634004,2033319292
636004,2073261540
638004,2259712503
640004,2080791085
642004,2158701900
644004,2266464818
646004,2052933606
648004,1982218683
650004,2051708815
652004,2045457684
654004,2121870737
656004,2243852737
658004,2019969130
660004,2110593291
662004,2296313953
664004,2349797999
666004,2089410435
668004,2342773048
670004,2090931098
672004,2171640561
674004,2107766648
676004,2157143654
678004,2378008489
680004,2431093589
682004,2365641282
684004,2223598775
686004,2154316094
688004,2232885262
690004,2223164317
692004,2419746525
694004,2484691042
696004,2191943614
698004,2447622368
700004,2502047864
702004,2274760817
704004,2310021722
706004,2348823137
708004,2104714734
710004,2486633221
712004,2513696910
714004,2294400895
716004,2518061484
718004,2348502463
720004,2339768537
722004,2278044433
724004,2315582585
726004,2345529315
728004,2349915853
730004,2366344535
732004,2518273265
734004,2502037631
736004,2365979879
738004,2619485685
740004,2411463734
742004,2393554708
744004,2446986811
746004,2452649690
748004,2459440000
750004,2459317698
752004,2411307211
754004,2473320649
756004,2450520616
758004,2744224409
760004,2736285390
762004,2502353941
764004,2414423870
766004,2557156636
768004,2315075396
770004,2725473716
772004,2591959168
774004,2563372343
776004,2683558291
778004,2562157586
780004,2469157895
782004,2590284368
784004,2751821085
786004,2605830519
788004,2695003760
790004,2443834333
792004,2879162094
794004,2693176993
796004,2615025562
798004,2733424262
800004,2693129567
802004,2631856489
804004,2800685456
806004,2653304421
808004,2818299522
810004,2947098021
812004,2461948123
814004,2963129594
816004,2657848840
818004,2698445879
820004,2716572434
822004,2767855863
824004,2668473589
826004,2965304069
828004,2864003518
830004,2897720943
832004,2849193578
834004,3048940075
836004,3074562965
838004,2903634213
840004,3085892019
842004,3326749442
844004,3121632790
846004,3534010653
848004,3536903347
850004,3515648970
852004,3053610581
854004,3453192599
856004,3198237850
858004,3237250907
860004,3586369721
862004,3426902741
864004,3290519601
866004,2991337060
868004,3127912043
870004,3136455157
872004,2905468074
874004,2848348048
876004,2997239231
878004,2932023788
880004,3157826316
882004,3113988205
884004,3325566950
886004,2838777323
888004,2844727089
890004,3145082269
892004,3266633884
894004,3218935367
896004,3082648447
898004,3114286487
900004,3167887777
902004,3066833341
904004,3056072674
906004,3306571771
908004,3278256820
910004,3041879559
912004,3273984272
914004,3424929815
916004,3320737668
918004,3310000341
920004,3430852422
922004,3065787415
924004,3049067589
926004,2985719376
928004,3239812978
930004,3184586512
932004,2987889394
934004,3191792229
936004,3259582599
938004,3099162359
940004,3228800663
942004,3197766641
944004,3080083037
946004,3335557650
948004,3245380852
950004,3066811765
952004,3451340087
954004,3166755180
956004,3231449242
958004,3174109438
960004,3473291631
962004,3218497129
964004,3313581939
966004,3385128920
968004,3370142441
970004,3256409630
972004,3265709758
974004,3128580568
976004,3572596960
978004,3242172384
980004,3318839566
982004,3403488886
984004,3573305674
986004,3371577364
988004,3276255908
990004,3470328719
992004,3398950780
994004,3601244134
996004,3636457189
998004,3440693096
1000004,3383588735
1002004,3472529970
1004004,3705636426
1006004,3549307067
1008004,3393871397
1010004,3512305494
1012004,3631088112
1014004,3469545146
1016004,3301643835
1018004,3441050550
1020004,3484554963
1022004,3795787545
1024004,3603193545
1026004,3789158670
1028004,3833573619
1030004,3546443636
1032004,3455736584
1034004,3587443807
1036004,3508364578
1038004,3772931782
1040004,3829146430
1042004,3750180188
1044004,3754200093
1046004,3731514932
1048004,3478299036
1050004,3870051799
1052004,3617251469
1054004,3644757417
1056004,4464844662
1058004,3880293273
1060004,3851692613
1062004,4113866372
1064004,4397918712
1066004,4119898313
1068004,3940292539
1070004,3994137394
1072004,3688874277
1074004,3892555717
1076004,3701738647
1078004,3824345542
1080004,3745077356
1082004,3773948318
1084004,4037043074
1086004,4039121232
1088004,3793386024
1090004,3965848084
1092004,3698915302
1094004,3935438619
1096004,3842617217
1098004,3935797440
1100004,3775137616
1102004,3862632690
1104004,4073501554
1106004,4091090660
1108004,3853742824
1110004,4125189293
1112004,3809936171
1114004,3897339486
1116004,4101758452
1118004,3809742142
1120004,4064745031
1122004,4213765974
1124004,4342511242
1126004,4047581893
1128004,3948598362
1130004,4713018640
1132004,4545345186
1134004,4231466389
1136004,4248103584
1138004,4183655787
1140004,3881580668
1142004,3871033528
1144004,3952219216
1146004,4102814494
1148004,4199551195
1150004,4104999404
1152004,4199131192
1154004,4066170067
1156004,4059349309
1158004,4193037095
1160004,4401572505
1162004,3961906236
1164004,4062557833
1166004,4064765021
1168004,4235192493
1170004,4253060900
1172004,4421024834
1174004,4194029917
1176004,4371929236
1178004,4125247275
1180004,4334658945
1182004,4013489662
1184004,4372155089
1186004,4493481001
1188004,4333053021
1190004,3969534271
1192004,4321851552
1194004,4135401841
1196004,4250566696
1198004,4324080438
1200004,4143853162
1202004,4173998784
1204004,4500132611
1206004,4313629283
1208004,4493469985
1210004,4293571529
1212004,4336937948
1214004,4250503954
1216004,4266380764
1218004,4426895415
1220004,4397036165
1222004,4370083810
1224004,4450244017
1226004,4328952434
1228004,4603782023
1230004,4360851366
1232004,4445354775
1234004,4335003945
1236004,4718581200
1238004,4265268248
1240004,4722737506
1242004,4424689684
1244004,4551362747
1246004,4551912145
1248004,4739571751
1250004,4275434185
1252004,4457877253
1254004,4547836996
1256004,4515954343
1258004,4562433564
1260004,4433133258
1262004,4720907386
1264004,4334884650
1266004,4587640932
1268004,4550917787
1270004,4567432904
1272004,4331614734
1274004,4452338488
1276004,4510480390
1278004,4593754985
1280004,4670128284
1282004,4663766465
1284004,4540964995
1286004,4608778770
1288004,4693984697
1290004,4695440801
1292004,4953615566
1294004,4664761560
1296004,4880743182
1298004,4392888922
1300004,4633650897
1302004,4891864457
1304004,4548014140
1306004,4563978316
1308004,4773621048
1310004,4676148693
1312004,4660234582
1314004,4880738909
1316004,5073603111
1318004,4699614547
1320004,4999583862
1322004,5089419529
1324004,4664426318
1326004,4698318486
1328004,5221994947
1330004,4726262316
1332004,4797334224
1334004,4990708760
1336004,4801736775
1338004,4741860184
1340004,4607202830
1342004,4945448746
1344004,5063485084
1346004,4809262777
1348004,4871637640
1350004,5292848262
1352004,4814640586
1354004,4807154461
1356004,4931373698
1358004,4885191155
1360004,4966634261
1362004,5052930115
1364004,4886759329
1366004,5004392991
1368004,5030742535
1370004,5055443801
1372004,4875646089
1374004,5099967810
1376004,4942311290
1378004,5009135207
1380004,5090276947
1382004,5148096814
1384004,5078858475
1386004,5261352525
1388004,5039223488
1390004,5054388725
1392004,5041618209
1394004,5237673944
1396004,5067871750
1398004,5126611490
1400004,5032783722
1402004,5145875215
1404004,5380428310
1406004,5218197310
1408004,4960863804
1410004,4988834336
1412004,4993744565
1414004,5828438392
1416004,5400630281
1418004,5681202179
1420004,5767296776
1422004,6115045585
1424004,5607895202
1426004,5349231832
1428004,5193519357
1430004,5297716696
1432004,5612697484
1434004,5374749190
1436004,5212277058
1438004,5231425127
1440004,5280699554
1442004,5333322209
1444004,5152236889
1446004,5257061315
1448004,5307514819
1450004,5123448612
1452004,5237589842
1454004,5217558908
1456004,5413941774
1458004,5589885600
1460004,5514889631
1462004,5322594193
1464004,5439727857
1466004,5282413900
1468004,5535701105
1470004,5168869675
1472004,5191595150
1474004,5361712956
1476004,5440764153
1478004,5470383121
1480004,5488480460
1482004,5471609275
1484004,5506931796
1486004,5491557602
1488004,5360929856
1490004,5454154966
1492004,5557952325
1494004,5245662213
1496004,5444761209
1498004,5334561860
1500004,5489960763
1502004,5619320272
1504004,5221588113
1506004,5480982396
1508004,5900874223
1510004,5427017159
1512004,5595049732
1514004,5405114960
1516004,5503926604
1518004,5503444319
1520004,5439375631
1522004,5787081515
1524004,5676274379
1526004,5466569779
1528004,5646279897
1530004,5813430424
1532004,5542380616
1534004,5638181087
1536004,5764702208
1538004,5456365000
1540004,5716506000
1542004,5523879825
1544004,5624300347
1546004,5806074977
1548004,5726114241
1550004,5672477492
1552004,5563448936
1554004,5746808297
1556004,5577788735
1558004,5851203896
1560004,5645682729
1562004,5860000041
1564004,5637193506
1566004,5733341457
1568004,5721804366
1570004,5822064116
1572004,5916459584
1574004,5913465419
1576004,5741634633
1578004,5821891587
1580004,5703556205
1582004,5841931921
1584004,5869857373
1586004,5751441567
1588004,5903561590
1590004,5920617010
1592004,5941223023
1594004,5831425397
1596004,5879602284
1598004,6398358005
1600004,6431197473
1602004,6729444239
1604004,6131852553
1606004,5944106423
1608004,6004025833
1610004,5760424697
1612004,5930780272
1614004,5944244368
1616004,5875022871
1618004,5909559201
1620004,6147914664
1622004,6188212307
1624004,5993881899
1626004,6015715635
1628004,5974483745
1630004,5917452424
1632004,5979456767
1634004,5999160211
1636004,6126673290
1638004,5821752326
1640004,5873507929
1642004,6040734568
1644004,6049196443
1646004,6197856640
1648004,6159450956
1650004,5992318194
1652004,6079139279
1654004,6179450779
1656004,6160550784
1658004,6171869237
1660004,6129993379
1662004,6075671306
1664004,6098197473
1666004,6238450288
1668004,6223992174
1670004,6193223084
1672004,6185837642
1674004,6139589261
1676004,6267232684
1678004,5998160861
1680004,6079652653
1682004,6395763658
1684004,6134383380
1686004,6300848415
1688004,6250482995
1690004,6284274803
1692004,6383674397
1694004,6210365185
1696004,6167836176
1698004,6162850641
1700004,6335598660
1702004,6328547838
1704004,6272676795
1706004,6160971355
1708004,6367343675
1710004,6276908065
1712004,6475546128
1714004,6296025995
1716004,6720208885
1718004,6544827550
1720004,6475147073
1722004,6633429433
1724004,7445229008
1726004,6487763104
1728004,6507276544
1730004,6683941297
1732004,7166383107
1734004,6971682650
1736004,7323402197
1738004,7269962548
1740004,6538697394
1742004,6726177372
1744004,6655223956
1746004,6362586618
1748004,6456678932
1750004,6559740036
1752004,6471341067
1754004,6489215864
1756004,6567468646
1758004,6513058430
1760004,6552401187
1762004,6571825488
1764004,6593545756
1766004,6467860638
1768004,6571765340
1770004,6726112819
1772004,6612452317
1774004,6646880915
1776004,6537317685
1778004,6649791333
1780004,6672263185
1782004,6537845150
1784004,6660680616
1786004,6735877959
1788004,6686091558
1790004,6711780060
1792004,6816243324
1794004,6754792662
1796004,6575736813
1798004,6880564692
1800004,6634310107
1802004,6809772677
1804004,6785743074
1806004,6512566486
1808004,6700208095
1810004,6834930812
1812004,6968627744
1814004,6785733244
1816004,7028273532
1818004,6751626563
1820004,6762585088
1822004,6935526500
1824004,6742815878
1826004,6775916531
1828004,6783221758
1830004,7679448013
1832004,7419382345
1834004,7588854496
1836004,7219754761
1838004,6961282301
1840004,6779848195
1842004,6825475135
1844004,6846495190
1846004,7108430876
1848004,6969297860
1850004,6979525161
1852004,6964914111
1854004,7033006362
1856004,6981292872
1858004,7140943242
1860004,6934163713
1862004,7070042835
1864004,6961760523
1866004,7135568257
1868004,6890633040
1870004,7096250330
1872004,7035638669
1874004,7092849065
1876004,7214729442
1878004,7112521280
1880004,6947228517
1882004,7141303010
1884004,7153807285
1886004,7201401604
1888004,7132215602
1890004,7188999771
1892004,7220938196
1894004,7416613770
1896004,7098234469
1898004,7204099443
1900004,7186823473
1902004,7280593557
1904004,7228391807
1906004,7229881462
1908004,7282838008
1910004,7216757291
1912004,7130720165
1914004,7280092160
1916004,7348149833
1918004,7487126958
1920004,7081396981
1922004,7382319968
1924004,7170968325
1926004,7540668574
1928004,7520976063
1930004,7423954723
1932004,7465002248
1934004,7475805365
1936004,7339197680
1938004,7429762011
1940004,7462715928
1942004,7404445084
1944004,7267064233
1946004,7311623206
1948004,7470042602
1950004,7452298895
1952004,7384389226
1954004,7484849487
1956004,7275693314
1958004,7428621509
1960004,7611798510
1962004,7450986915
1964004,7359724489
1966004,7567433218
1968004,7508172479
1970004,7931541753
1972004,8226074369
1974004,8463463130
1976004,7620608193
1978004,7447784547
1980004,7434335357
1982004,7543146967
1984004,7516830721
1986004,7552777814
1988004,7614500953
1990004,7689525959
1992004,7469023502
1994004,7452509607
1996004,7622481794
1998004,7782729289
